<svg width="398" height="276" viewBox="0 0 398 276" fill="none" xmlns="http://www.w3.org/2000/svg">
<path d="M398 276V2.60582C398 2.60582 364.645 -28.4389 296.239 123.781C227.832 276 0 276 0 276H398Z" fill="url(#paint0_linear)"/>
<defs>
<linearGradient id="paint0_linear" x1="199" y1="2.60582" x2="199" y2="276" gradientUnits="userSpaceOnUse">
<stop stop-color="#b5e8e1"/>
<stop offset="1" stop-color="#45a298"/>
</linearGradient>
</defs>
</svg>
