<?xml version="1.0" encoding="utf-8"?>
<!-- Generator: Adobe Illustrator 21.1.0, SVG Export Plug-In . SVG Version: 6.00 Build 0)  -->
<svg version="1.1" id="Capa_1" xmlns="http://www.w3.org/2000/svg" xmlns:xlink="http://www.w3.org/1999/xlink" x="0px" y="0px"
	 viewBox="0 0 183 22" style="enable-background:new 0 0 183 22;" xml:space="preserve">
<style type="text/css">
	.st0{fill:#AA0000;}
</style>
<path class="st0" d="M-0.5,0H183c0,0-29.2,22-98.3,22C39.6,22-0.5,0-0.5,0z"/>
</svg>
