<?xml version="1.0" encoding="UTF-8" standalone="yes"?>
<svg xmlns="http://www.w3.org/2000/svg" xmlns:xlink="http://www.w3.org/1999/xlink" width="100px" height="100px" viewBox="0 0 100 100" version="1.1" fill="#000000">
  <g id="surface184213">
    <path style=" stroke:none;fill-rule:nonzero;fill:#000000;fill-opacity:1;" d="M 50 14 C 47.933594 14 46.136719 15.238281 45.378906 17.09375 C 34.148438 18.015625 24.925781 26.722656 23.535156 38.082031 L 20.109375 66.066406 C 17.222656 66.5 15 68.996094 15 72 C 15 75.308594 17.691406 78 21 78 L 41.058594 78 C 41.558594 82.492188 45.375 86 50 86 C 54.625 86 58.441406 82.492188 58.941406 78 L 79 78 C 82.308594 78 85 75.308594 85 72 C 85 68.996094 82.78125 66.5 79.894531 66.066406 L 76.46875 38.082031 C 75.078125 26.722656 65.851562 18.015625 54.625 17.09375 C 53.863281 15.238281 52.066406 14 50 14 Z M 50 15 C 51.484375 15 52.785156 15.804688 53.480469 17.039062 C 53.199219 17.027344 52.925781 17 52.644531 17 L 47.355469 17 C 47.074219 17 46.800781 17.027344 46.523438 17.039062 C 47.214844 15.804688 48.515625 15 50 15 Z M 47.355469 19 L 52.644531 19 C 63.746094 19 73.128906 27.308594 74.480469 38.328125 L 78.007812 67.121094 C 78.070312 67.625 78.496094 68 79 68 C 81.207031 68 83 69.792969 83 72 C 83 74.207031 81.207031 76 79 76 L 21 76 C 18.792969 76 17 74.207031 17 72 C 17 69.792969 18.792969 68 21 68 L 64.5 68 C 64.777344 68 65 67.777344 65 67.5 C 65 67.222656 64.777344 67 64.5 67 L 22.007812 67 L 25.515625 38.328125 C 26.867188 27.308594 36.257812 19 47.355469 19 Z M 67.5 67 C 67.222656 67 67 67.222656 67 67.5 C 67 67.777344 67.222656 68 67.5 68 L 71.5 68 C 71.777344 68 72 67.777344 72 67.5 C 72 67.222656 71.777344 67 71.5 67 Z M 73.5 67 C 73.222656 67 73 67.222656 73 67.5 C 73 67.777344 73.222656 68 73.5 68 L 75.5 68 C 75.777344 68 76 67.777344 76 67.5 C 76 67.222656 75.777344 67 75.5 67 Z M 42.066406 78 L 57.929688 78 C 57.4375 81.941406 54.070312 85 50 85 C 45.929688 85 42.5625 81.941406 42.066406 78 Z M 42.066406 78 "/>
  </g>
</svg>
