<svg width="500" height="129" viewBox="0 0 500 129" fill="none" xmlns="http://www.w3.org/2000/svg">
<path d="M130.099 88.5895V91.7895H112.159V85.8947H104.13V10.9474H100.742V0H96.3513V10.6105H94.7203V76.6316H91.2075V17.3474H53.5703L53.8212 25.4316H58.4632L47.4229 61.1368H7.27653V98.5263H0V107.789H6.90016V112H119.812V107.453C119.624 106.905 240 108 240 108V89L130.099 88.5895ZM74.6472 61.4737H58.965L66.116 26.4421H74.6472V61.4737Z" fill="#09AFE3"/>
<path d="M72.4919 93.0504C72.4919 93.0504 72.6378 93.0504 72.4919 93.0504C72.6378 93.0504 72.6378 93.0504 72.4919 93.0504C72.6378 93.0504 73.6594 92.9044 74.3892 92.3203C75.1189 91.4441 75.4108 89.9838 74.827 89.2537C74.5351 88.9616 74.0973 88.8156 73.6594 88.8156C73.2216 88.9616 72.9297 89.1076 72.7838 89.5457C72.7838 89.6918 72.7838 89.6918 72.7838 89.8378C72.9297 89.8378 72.9297 89.8378 73.0756 89.8378C73.2216 89.6918 73.3675 89.6918 73.5135 89.6918C73.6594 89.6918 73.6594 89.8378 73.8054 89.9838C73.8054 90.1299 73.8054 90.2759 73.6594 90.4219L73.5135 90.5679C73.2216 90.5679 72.7837 90.2759 72.3459 89.8378C71.9081 89.3997 71.3243 89.1076 70.8864 88.8156C70.1567 88.5235 67.9675 88.0854 66.508 89.1077C66.508 89.1077 65.6324 89.8378 65.4864 90.4219C65.1945 91.006 65.1945 91.7362 65.3405 92.1743C65.1945 92.3203 65.0486 92.4663 65.0486 92.7584C65.0486 93.1965 65.4864 93.4885 66.2162 93.6346C66.2162 93.7806 66.0702 93.7806 66.0702 93.9266C66.0702 94.3647 66.654 94.8028 67.3837 94.8028C67.9675 94.8028 68.4054 94.6568 68.5513 94.3647C68.6973 94.6568 69.1351 94.8028 69.7189 94.8028C70.4486 94.8028 71.0324 94.3647 71.0324 93.9266C71.0324 93.7806 71.0324 93.6346 70.8864 93.6346C71.3243 93.6346 71.6162 93.4885 71.9081 93.1965C71.9081 93.1965 71.9081 93.1965 72.054 93.1965C71.9081 93.1965 72.2 93.1965 72.4919 93.0504ZM73.5135 92.4663C73.3675 92.6124 73.0757 92.6124 72.9297 92.6124C73.0757 91.7362 72.4919 90.86 72.3459 90.4219C72.6378 90.714 72.9297 90.86 73.2216 91.006C73.3675 91.2981 73.6594 91.7362 73.5135 92.4663ZM71.9081 92.9044C71.9081 92.7584 71.7621 92.4663 71.6162 92.1743C71.3243 91.5902 70.7405 90.714 69.281 90.2759C67.3837 89.6918 66.508 89.9838 66.0702 90.2759C66.0702 90.2759 66.0702 90.2759 66.2162 90.1299C66.3621 89.9838 66.5081 89.8378 66.654 89.6918C67.2378 89.3997 68.2594 89.3997 69.7189 89.8378C71.6162 90.4219 72.2 91.7362 72.3459 92.3203C72.3459 92.4663 72.4919 92.7584 72.4919 92.9044C72.4919 92.9044 72.4919 92.9044 72.3459 92.9044C72.054 92.7584 72.054 92.9044 71.9081 92.9044ZM69.1351 91.006C68.8432 91.006 68.6973 91.1521 68.5513 91.2981C68.2594 91.006 67.9675 90.86 67.3837 90.86C67.2378 90.86 67.0918 90.86 66.9459 90.86C67.3837 90.714 67.9675 90.714 68.5513 90.714C68.6973 91.006 68.8432 91.006 69.1351 91.006ZM67.3837 91.4441C67.8216 91.4441 68.2594 91.7362 68.2594 91.8822C68.2594 92.0282 68.1135 92.1743 67.9675 92.1743H67.8216C67.6756 92.1743 67.5297 92.1743 67.3837 92.1743C66.9459 92.1743 66.508 91.8822 66.508 91.7362C66.508 91.5901 66.8 91.4441 67.3837 91.4441ZM67.9675 92.6124H68.1135C68.2594 92.6124 68.2594 92.6124 68.4054 92.6124C68.9891 92.6124 69.281 92.9044 69.281 93.0504C69.281 93.1965 68.8432 93.4885 68.4054 93.4885C67.8216 93.4885 67.5297 93.1965 67.5297 93.0504C67.5297 92.9044 67.6756 92.7584 67.9675 92.6124ZM68.6972 91.8822C68.6972 91.7362 69.1351 91.4441 69.5729 91.4441C69.7189 91.4441 69.7189 91.4441 69.8648 91.4441C70.1567 91.4441 70.4486 91.7362 70.4486 91.8822C70.4486 92.0282 70.3027 92.1743 70.0108 92.3203C69.8648 92.3203 69.7189 92.3203 69.5729 92.3203C68.9891 92.3203 68.6972 92.0282 68.6972 91.8822ZM65.9243 92.1743C65.9243 92.0282 65.9243 92.0282 65.9243 91.8822C65.9243 91.7362 66.0702 91.5902 66.2162 91.4441C66.0702 91.5902 66.0702 91.7362 66.0702 91.8822C66.0702 92.0282 66.0702 92.1743 66.2162 92.1743C66.0702 92.1743 66.0702 92.1743 65.9243 92.1743ZM65.3405 93.0504C65.3405 92.9044 65.4864 92.9044 65.6324 92.7584C65.7783 92.7584 65.9243 92.6124 66.0702 92.6124C66.2162 92.6124 66.2162 92.6124 66.3621 92.6124C66.9459 92.6124 67.2378 92.9044 67.2378 93.0504C67.2378 93.1965 67.0918 93.1965 67.0918 93.3425C66.9459 93.4885 66.654 93.4885 66.3621 93.4885C65.6324 93.4885 65.3405 93.1965 65.3405 93.0504ZM67.2378 94.6568C66.654 94.6568 66.3621 94.5107 66.3621 94.2187C66.3621 94.0727 66.7999 93.7806 67.2378 93.7806C67.5297 93.7806 67.6756 93.7806 67.9675 93.9266C67.9675 93.9266 68.1135 94.0727 68.1135 94.2187C68.1135 94.3647 67.6756 94.6568 67.2378 94.6568ZM69.5729 94.6568C68.9891 94.6568 68.6972 94.3647 68.6972 94.2187C68.6972 94.2187 68.6973 94.0727 68.8432 94.0727C68.9891 93.9266 69.281 93.7806 69.5729 93.7806C69.7189 93.7806 69.8648 93.7806 70.0108 93.7806C70.3027 93.9266 70.4486 94.0727 70.4486 94.2187C70.4486 94.3647 70.0108 94.6568 69.5729 94.6568ZM71.4702 93.1965C71.3243 93.3425 71.0324 93.4885 70.5946 93.4885C70.4486 93.4885 70.3027 93.4885 70.1567 93.4885C69.8648 93.3425 69.7189 93.1965 69.7189 93.0504C69.7189 92.9044 69.8648 92.7584 70.1567 92.6124C70.3027 92.6124 70.4486 92.6124 70.5946 92.6124C70.7405 92.6124 70.7405 92.6124 70.8864 92.6124C71.1783 92.6124 71.4702 92.7584 71.4702 93.1965C71.4702 93.0504 71.4702 93.0504 71.4702 93.1965Z" fill="#3B5266"/>
<path d="M83 88.3773V77.7172C83 77.5711 83 77.4251 82.854 77.4251C82.7081 77.4251 82.5622 77.4251 82.5622 77.4251L81.3946 78.0092V74.2125C81.3946 74.0664 81.3946 73.9204 81.2487 73.9204C81.1027 73.9204 80.9568 73.9204 80.9568 73.9204L75.7027 77.2791H75.5567C74.6811 77.5712 73.8054 77.7172 73.0757 77.7172C70.5946 77.7172 69.7189 76.1109 69.7189 76.1109C69.7189 75.9648 69.573 75.9648 69.427 75.9648C69.2811 75.9648 69.1351 76.1109 69.1351 76.1109C69.1351 76.1109 68.2595 77.7172 65.7784 77.7172C65.0486 77.7172 64.173 77.5712 63.2973 77.2791L58.0432 73.9204C57.8973 73.9204 57.7514 73.9204 57.6054 73.9204C57.4595 73.9204 57.4595 74.0664 57.4595 74.2125V78.0092L56.4378 77.4251C56.2919 77.4251 56.146 77.4251 56.146 77.4251C56 77.4251 56 77.5711 56 77.7172V88.3773C56 88.5234 56 91.1519 58.1892 93.1963C60.0865 95.0947 63.0054 96.1169 66.9459 96.1169C66.9459 96.1169 66.946 96.1169 67.0919 96.1169C68.5514 96.555 69.427 96.847 69.427 98.1613C69.427 98.3073 69.573 98.4534 69.7189 98.4534C69.8649 98.4534 70.0108 98.3073 70.0108 98.1613C70.0108 96.9931 70.8865 96.555 72.3459 96.1169H72.4919C76.4324 96.1169 79.3514 95.0947 81.2487 93.1963C83 91.1519 83 88.6694 83 88.3773ZM64.3189 85.3107C64.7568 85.1647 64.9027 84.2885 64.9027 84.2885C64.9027 84.2885 65.6324 84.7266 66.0703 84.5806C66.0703 84.7266 66.0703 85.1647 66.0703 85.1647C66.0703 85.1647 65.9243 85.4567 66.0703 85.7488C66.2162 85.8948 66.2162 86.1869 66.2162 86.4789C65.9243 86.4789 65.7784 86.4789 65.4865 86.4789C65.0486 86.4789 64.6108 86.4789 64.3189 86.4789C64.3189 85.8948 64.3189 85.7488 64.3189 85.3107ZM72.4919 84.7266H73.3676C73.3676 85.1647 73.3676 85.6028 73.5135 86.3329L72.4919 86.1869C72.4919 85.6028 72.4919 85.1647 72.4919 84.7266ZM79.6432 86.0409C79.0595 86.625 78.1838 86.917 77.1622 86.917C76.8703 86.1869 76.7243 85.4567 76.7243 84.8726L80.6649 82.6822C80.6649 83.1203 80.6649 85.0187 79.6432 86.0409ZM58.0432 82.8282L61.9838 85.0186C61.9838 85.6028 61.8378 86.3329 61.546 87.0631C60.5243 87.0631 59.7946 86.771 59.2108 86.1869C58.0432 85.0187 58.0432 83.1203 58.0432 82.8282ZM82.2703 78.4473V85.0186L80.5189 86.0409C81.3946 84.5806 81.3946 82.9742 81.3946 82.6822V78.8854L82.2703 78.4473ZM80.6649 78.4473L77.7459 80.1997C77.6 80.0537 77.1622 79.4695 76.1405 77.8632L80.6649 74.9426V78.4473ZM72.9297 78.4473C73.6595 78.4473 74.5351 78.3013 75.4108 78.0092C76.4324 79.4695 76.8703 80.1997 77.1622 80.4917C76.7243 81.2219 75.4108 83.7044 76.4324 86.771C75.9946 86.3329 74.973 86.1869 73.9514 86.1869C73.8054 85.4567 73.8054 85.0187 73.8054 84.5806H75.4108C75.5568 84.5806 75.5567 84.2885 75.5567 83.9964V82.5362C75.5567 81.3679 74.973 81.3679 74.973 81.3679C74.973 81.3679 74.5351 81.3679 74.3892 80.7838C74.2433 80.1997 73.8054 79.7616 73.3676 79.7616C72.9297 79.7616 72.0541 80.0536 71.4703 80.4917C71.0324 80.6378 71.0324 80.9298 71.0324 81.3679C70.8865 82.3901 70.5946 82.2441 70.5946 82.2441C70.4486 82.2441 70.3027 82.3901 70.3027 82.6822V84.1425C70.3027 84.4345 70.4486 84.7266 70.5946 84.7266H72.2C72.2 85.1647 72.2 85.6028 72.0541 86.3329C71.0324 86.3329 70.1568 86.625 69.573 87.0631V77.2791C70.0108 77.7172 71.1784 78.4473 72.9297 78.4473ZM68.8432 77.4251V86.771C68.4054 86.4789 67.6757 86.3329 66.8 86.3329C66.654 85.8948 66.654 84.7266 66.8 84.4345C67.5297 84.2885 67.5297 83.5584 67.5297 82.9742C67.5297 82.5361 67.3838 80.9298 67.3838 80.9298L67.8216 80.7838C67.9676 80.7838 67.9676 80.7838 67.9676 80.6378C67.9676 80.4917 67.9676 80.3457 67.9676 80.3457L67.5297 80.1997C67.3838 80.0537 67.2378 79.9076 67.0919 79.9076C66.946 79.9076 66.654 79.9076 66.5081 80.1997C66.3622 80.0537 66.0703 80.1997 65.9243 80.1997C65.9243 80.1997 65.9243 80.9298 66.6541 80.7838L66.8 82.6822C66.8 82.6822 66.8 83.1203 66.3622 82.9742C65.9243 82.8282 65.0487 82.5361 64.4649 82.6822C64.173 82.8282 63.7351 82.9742 63.4433 83.7044C63.1514 84.4345 63.5892 84.1425 63.5892 84.1425L64.027 83.8504C64.027 83.8504 64.3189 84.4345 64.027 84.8726C63.7351 85.1647 63.8811 85.4567 63.8811 85.4567C63.8811 85.4567 64.027 86.1869 64.027 86.4789C63.2973 86.4789 62.7135 86.771 62.2757 86.917C63.1514 83.8504 61.9838 81.3679 61.546 80.6378C61.8378 80.3457 62.2757 79.6156 63.2973 78.1553C64.173 78.4473 65.0486 78.5933 65.7784 78.5933C67.2378 78.4473 68.1135 78.0092 68.8432 77.4251ZM58.0432 74.9426L62.5676 77.8632C61.6919 79.3235 61.1081 79.9076 60.9622 80.1997L58.0432 78.5933V74.9426ZM57.3135 78.8854V82.6822C57.3135 82.8282 57.3135 84.5806 58.1892 86.0409L56.4378 85.0186V78.4473L57.3135 78.8854ZM56.5838 89.5456L60.9622 92.0281C61.4 93.1963 62.1297 93.9264 63.2973 94.9487C63.5892 95.2407 64.027 95.3867 64.3189 95.5328C61.6919 95.2407 59.6487 94.3645 58.3351 92.9042C57.1676 91.736 56.7297 90.4217 56.5838 89.5456ZM69.2811 96.9931C68.6973 96.1169 67.6757 95.8248 66.5081 95.5328C65.4865 95.2407 64.4649 94.9487 63.5892 94.2185C61.4 92.6122 60.6703 91.1519 61.8378 87.7932H76.7243C77.8919 91.1519 77.1622 92.4662 74.973 94.2185C74.0973 94.8026 73.0757 95.2407 72.0541 95.3867C70.8865 95.8248 69.8649 96.1169 69.2811 96.9931ZM80.373 92.9042C78.9135 94.3645 76.8703 95.2407 74.2432 95.5328C74.6811 95.3867 74.973 95.0947 75.2649 94.9487C76.4324 94.0725 77.3081 93.1963 77.6 92.1741C77.6 92.1741 77.6 92.1741 77.7459 92.1741L82.1243 89.6916C81.9784 90.4217 81.5405 91.736 80.373 92.9042Z" fill="#3B5266"/>
<path d="M69.2811 75.673C71.3243 75.673 72.7838 74.6507 72.7838 73.3365C72.7838 72.0222 71.1784 71 69.2811 71C67.2378 71 65.7783 72.0222 65.7783 73.3365C65.7783 74.6507 67.2378 75.673 69.2811 75.673ZM69.2811 72.0222C70.3027 72.0222 71.0324 72.4603 71.0324 72.8984C71.0324 73.3365 70.5946 73.6285 70.0108 73.7746C69.427 73.9206 69.573 74.2127 69.2811 74.3587C68.9892 74.2127 69.1351 73.9206 68.5513 73.7746C67.9675 73.6285 67.5297 73.3365 67.5297 72.8984C67.5297 72.4603 68.2594 72.0222 69.2811 72.0222Z" fill="#3B5266"/>
<path d="M240 89.0002V108H266.419H500V89H276.957L240 89.0002Z" fill="#00A0AA"/>
<path d="M33.4562 128.762C43.5697 128.762 51.7683 120.559 51.7683 110.44C51.7683 100.32 43.5697 92.1172 33.4562 92.1172C23.3426 92.1172 15.144 100.32 15.144 110.44C15.144 120.559 23.3426 128.762 33.4562 128.762Z" fill="#3B5266"/>
<path d="M21.0242 110.44C21.0242 105.565 23.7122 101.531 27.7442 99.3455L27.0722 98.3369C22.7042 100.69 19.6802 105.229 19.6802 110.44C19.6802 115.651 22.7042 120.19 27.0722 122.543L27.7442 121.534C23.8802 119.517 21.0242 115.315 21.0242 110.44Z" fill="#76C1AA"/>
<path d="M39.8402 98.3369L39.3362 99.3455C43.3682 101.363 46.2242 105.565 46.2242 110.44C46.2242 115.315 43.3682 119.517 39.3362 121.534L39.8402 122.543C44.2082 120.19 47.2323 115.651 47.2323 110.44C47.0643 105.229 44.2082 100.69 39.8402 98.3369Z" fill="#76C1AA"/>
<path opacity="0.3" d="M33.4561 113.129C34.9406 113.129 36.1441 111.925 36.1441 110.44C36.1441 108.954 34.9406 107.75 33.4561 107.75C31.9715 107.75 30.7681 108.954 30.7681 110.44C30.7681 111.925 31.9715 113.129 33.4561 113.129Z" fill="white"/>
<path opacity="0.3" d="M35.136 108.423L38.1601 105.397C36.9841 104.22 35.472 103.548 33.624 103.548V107.918C34.128 107.918 34.632 108.086 35.136 108.423Z" fill="white"/>
<path opacity="0.3" d="M36.1441 110.44H40.5122C40.5122 108.759 39.8402 107.078 38.6642 105.901L35.6401 108.927C35.8081 109.263 35.9761 109.768 36.1441 110.44Z" fill="white"/>
<path opacity="0.3" d="M35.3042 112.289L38.3282 115.315C39.5042 114.138 40.1762 112.625 40.1762 110.944H35.8082C35.9762 111.449 35.6402 111.953 35.3042 112.289Z" fill="white"/>
<path opacity="0.3" d="M31.9442 112.625L28.9202 115.651C30.0962 116.659 31.4402 117.332 33.1202 117.332V112.961C32.6162 112.961 32.2802 112.793 31.9442 112.625Z" fill="white"/>
<path opacity="0.3" d="M33.624 113.129V117.5C35.304 117.5 36.8161 116.827 37.8241 115.819L34.8 112.793C34.464 112.961 34.128 113.129 33.624 113.129Z" fill="white"/>
<path opacity="0.3" d="M31.2722 109.095L28.2481 106.069C27.2401 107.246 26.5681 108.759 26.5681 110.44H30.9361C30.7681 109.936 30.9362 109.431 31.2722 109.095Z" fill="white"/>
<path opacity="0.3" d="M30.9362 110.944H26.5681C26.7361 112.625 27.4081 113.97 28.4161 115.147L31.4402 112.121C31.1042 111.785 30.9362 111.449 30.9362 110.944Z" fill="white"/>
<path opacity="0.3" d="M32.952 107.918V103.548C31.272 103.716 29.76 104.388 28.584 105.397L31.608 108.423C31.944 108.255 32.448 107.918 32.952 107.918Z" fill="white"/>
<path d="M33.6241 102.539C33.1201 102.539 32.4481 102.539 31.9441 102.707C28.2481 103.38 25.5601 106.573 25.5601 110.44C25.5601 114.81 29.0881 118.34 33.4561 118.34C35.6401 118.34 37.6561 117.5 39.0001 115.987C40.5122 114.474 41.3522 112.625 41.3522 110.44C41.5202 106.069 37.9921 102.539 33.6241 102.539ZM36.1441 110.44C36.1441 109.935 35.9761 109.431 35.6401 108.927L38.6641 105.901C39.6722 107.078 40.3442 108.591 40.5122 110.44H36.1441ZM28.7521 115.651L31.7761 112.625C32.1121 112.793 32.4481 112.961 32.9521 113.129V117.5C31.4401 117.332 29.9281 116.659 28.7521 115.651ZM35.1361 108.422C34.8001 108.086 34.2961 107.918 33.6241 107.918V103.548C35.3041 103.548 36.9841 104.22 38.1601 105.397L35.1361 108.422ZM30.7681 110.44H26.4001C26.4001 108.759 27.0721 107.246 28.0801 106.069L31.1041 109.095C30.9361 109.431 30.7681 109.935 30.7681 110.44ZM30.9361 110.944C31.1041 111.448 31.2721 111.784 31.4401 112.121L28.4161 115.146C27.4081 113.97 26.7361 112.625 26.5681 110.944H30.9361ZM33.4561 112.625C32.2801 112.625 31.2721 111.616 31.2721 110.44C31.2721 109.263 32.2801 108.254 33.4561 108.254C34.2961 108.254 34.9681 108.759 35.3041 109.431V109.599C35.4721 109.767 35.4721 110.103 35.4721 110.44C35.4721 110.776 35.4721 110.944 35.3041 111.28C35.1361 112.121 34.2961 112.625 33.4561 112.625ZM33.6241 113.129C34.1281 113.129 34.4641 112.961 34.8001 112.793L37.8241 115.819C36.6481 116.827 35.1361 117.5 33.6241 117.5V113.129ZM32.9521 103.548V107.918C32.4481 108.086 31.9441 108.254 31.6081 108.591L28.5841 105.565C29.7601 104.388 31.2721 103.716 32.9521 103.548ZM38.4961 115.314L35.4721 112.289C35.8081 111.952 35.9761 111.448 36.1441 110.944H40.5122C40.1762 112.625 39.5041 114.138 38.4961 115.314Z" fill="white"/>
<path opacity="0.3" d="M135.312 113.012C136.797 113.012 138 111.808 138 110.322C138 108.837 136.797 107.633 135.312 107.633C133.828 107.633 132.624 108.837 132.624 110.322C132.624 111.808 133.828 113.012 135.312 113.012Z" fill="white"/>
</svg>
