<svg width="501" height="129" viewBox="0 0 501 129" fill="none" xmlns="http://www.w3.org/2000/svg">
<path d="M130.099 88.5895V91.7895H112.159V85.8947H104.13V10.9474H100.742V0H96.3513V10.6105H94.7203V76.6316H91.2075V17.3474H53.5703L53.8212 25.4316H58.4632L47.4229 61.1368H7.27653V98.5263H0V107.789H6.90016V112H119.812V107.453H240V88.5895H130.099ZM74.6472 61.4737H58.965L66.116 26.4421H74.6472V61.4737Z" fill="#00B4CD"/>
<path d="M72.4919 93.0509C72.4919 93.0509 72.6378 93.0509 72.4919 93.0509C72.6378 93.0509 72.6378 93.0509 72.4919 93.0509C72.6378 93.0509 73.6594 92.9049 74.3892 92.3208C75.1189 91.4446 75.4108 89.9843 74.827 89.2542C74.5351 88.9621 74.0973 88.8161 73.6594 88.8161C73.2216 88.9621 72.9297 89.1081 72.7838 89.5462C72.7838 89.6923 72.7838 89.6923 72.7838 89.8383C72.9297 89.8383 72.9297 89.8383 73.0756 89.8383C73.2216 89.6923 73.3675 89.6923 73.5135 89.6923C73.6594 89.6923 73.6594 89.8383 73.8054 89.9843C73.8054 90.1303 73.8054 90.2764 73.6594 90.4224L73.5135 90.5684C73.2216 90.5684 72.7837 90.2764 72.3459 89.8383C71.9081 89.4002 71.3243 89.1081 70.8864 88.8161C70.1567 88.524 67.9675 88.0859 66.508 89.1081C66.508 89.1081 65.6324 89.8383 65.4864 90.4224C65.1945 91.0065 65.1945 91.7367 65.3405 92.1748C65.1945 92.3208 65.0486 92.4668 65.0486 92.7589C65.0486 93.197 65.4864 93.489 66.2162 93.6351C66.2162 93.7811 66.0702 93.7811 66.0702 93.9271C66.0702 94.3652 66.654 94.8033 67.3837 94.8033C67.9675 94.8033 68.4054 94.6573 68.5513 94.3652C68.6973 94.6573 69.1351 94.8033 69.7189 94.8033C70.4486 94.8033 71.0324 94.3652 71.0324 93.9271C71.0324 93.7811 71.0324 93.6351 70.8864 93.6351C71.3243 93.6351 71.6162 93.489 71.9081 93.197C71.9081 93.197 71.9081 93.197 72.054 93.197C71.9081 93.197 72.2 93.197 72.4919 93.0509ZM73.5135 92.4668C73.3675 92.6128 73.0757 92.6129 72.9297 92.6129C73.0757 91.7367 72.4919 90.8605 72.3459 90.4224C72.6378 90.7145 72.9297 90.8605 73.2216 91.0065C73.3675 91.2986 73.6594 91.7367 73.5135 92.4668ZM71.9081 92.9049C71.9081 92.7589 71.7621 92.4668 71.6162 92.1748C71.3243 91.5906 70.7405 90.7145 69.281 90.2764C67.3837 89.6923 66.508 89.9843 66.0702 90.2764C66.0702 90.2764 66.0702 90.2764 66.2162 90.1303C66.3621 89.9843 66.5081 89.8383 66.654 89.6923C67.2378 89.4002 68.2594 89.4002 69.7189 89.8383C71.6162 90.4224 72.2 91.7367 72.3459 92.3208C72.3459 92.4668 72.4919 92.7589 72.4919 92.9049C72.4919 92.9049 72.4919 92.9049 72.3459 92.9049C72.054 92.7589 72.054 92.9049 71.9081 92.9049ZM69.1351 91.0065C68.8432 91.0065 68.6973 91.1526 68.5513 91.2986C68.2594 91.0065 67.9675 90.8605 67.3837 90.8605C67.2378 90.8605 67.0918 90.8605 66.9459 90.8605C67.3837 90.7145 67.9675 90.7145 68.5513 90.7145C68.6973 91.0065 68.8432 91.0065 69.1351 91.0065ZM67.3837 91.4446C67.8216 91.4446 68.2594 91.7367 68.2594 91.8827C68.2594 92.0287 68.1135 92.1748 67.9675 92.1748H67.8216C67.6756 92.1748 67.5297 92.1748 67.3837 92.1748C66.9459 92.1748 66.508 91.8827 66.508 91.7367C66.508 91.5906 66.8 91.4446 67.3837 91.4446ZM67.9675 92.6129H68.1135C68.2594 92.6129 68.2594 92.6129 68.4054 92.6129C68.9891 92.6129 69.281 92.9049 69.281 93.0509C69.281 93.197 68.8432 93.489 68.4054 93.489C67.8216 93.489 67.5297 93.197 67.5297 93.0509C67.5297 92.9049 67.6756 92.7589 67.9675 92.6129ZM68.6972 91.8827C68.6972 91.7367 69.1351 91.4446 69.5729 91.4446C69.7189 91.4446 69.7189 91.4446 69.8648 91.4446C70.1567 91.4446 70.4486 91.7367 70.4486 91.8827C70.4486 92.0287 70.3027 92.1748 70.0108 92.3208C69.8648 92.3208 69.7189 92.3208 69.5729 92.3208C68.9891 92.3208 68.6972 92.0287 68.6972 91.8827ZM65.9243 92.1748C65.9243 92.0287 65.9243 92.0287 65.9243 91.8827C65.9243 91.7367 66.0702 91.5906 66.2162 91.4446C66.0702 91.5906 66.0702 91.7367 66.0702 91.8827C66.0702 92.0287 66.0702 92.1748 66.2162 92.1748C66.0702 92.1748 66.0702 92.1748 65.9243 92.1748ZM65.3405 93.0509C65.3405 92.9049 65.4864 92.9049 65.6324 92.7589C65.7783 92.7589 65.9243 92.6129 66.0702 92.6129C66.2162 92.6129 66.2162 92.6129 66.3621 92.6129C66.9459 92.6129 67.2378 92.9049 67.2378 93.0509C67.2378 93.197 67.0918 93.197 67.0918 93.343C66.9459 93.489 66.654 93.489 66.3621 93.489C65.6324 93.489 65.3405 93.197 65.3405 93.0509ZM67.2378 94.6573C66.654 94.6573 66.3621 94.5112 66.3621 94.2192C66.3621 94.0731 66.7999 93.7811 67.2378 93.7811C67.5297 93.7811 67.6756 93.7811 67.9675 93.9271C67.9675 93.9271 68.1135 94.0731 68.1135 94.2192C68.1135 94.3652 67.6756 94.6573 67.2378 94.6573ZM69.5729 94.6573C68.9891 94.6573 68.6972 94.3652 68.6972 94.2192C68.6972 94.2192 68.6973 94.0731 68.8432 94.0731C68.9891 93.9271 69.281 93.7811 69.5729 93.7811C69.7189 93.7811 69.8648 93.7811 70.0108 93.7811C70.3027 93.9271 70.4486 94.0731 70.4486 94.2192C70.4486 94.3652 70.0108 94.6573 69.5729 94.6573ZM71.4702 93.197C71.3243 93.343 71.0324 93.489 70.5946 93.489C70.4486 93.489 70.3027 93.489 70.1567 93.489C69.8648 93.343 69.7189 93.197 69.7189 93.0509C69.7189 92.9049 69.8648 92.7589 70.1567 92.6129C70.3027 92.6129 70.4486 92.6129 70.5946 92.6129C70.7405 92.6129 70.7405 92.6129 70.8864 92.6129C71.1783 92.6129 71.4702 92.7589 71.4702 93.197C71.4702 93.0509 71.4702 93.0509 71.4702 93.197Z" fill="#3B5266"/>
<path d="M83 88.3778V77.7177C83 77.5716 83 77.4256 82.854 77.4256C82.7081 77.4256 82.5622 77.4256 82.5622 77.4256L81.3946 78.0097V74.213C81.3946 74.0669 81.3946 73.9209 81.2487 73.9209C81.1027 73.9209 80.9568 73.9209 80.9568 73.9209L75.7027 77.2796H75.5567C74.6811 77.5716 73.8054 77.7177 73.0757 77.7177C70.5946 77.7177 69.7189 76.1113 69.7189 76.1113C69.7189 75.9653 69.573 75.9653 69.427 75.9653C69.2811 75.9653 69.1351 76.1113 69.1351 76.1113C69.1351 76.1113 68.2595 77.7177 65.7784 77.7177C65.0486 77.7177 64.173 77.5716 63.2973 77.2796L58.0432 73.9209C57.8973 73.9209 57.7514 73.9209 57.6054 73.9209C57.4595 73.9209 57.4595 74.0669 57.4595 74.213V78.0097L56.4378 77.4256C56.2919 77.4256 56.146 77.4256 56.146 77.4256C56 77.4256 56 77.5716 56 77.7177V88.3778C56 88.5238 56 91.1524 58.1892 93.1968C60.0865 95.0952 63.0054 96.1174 66.9459 96.1174C66.9459 96.1174 66.946 96.1174 67.0919 96.1174C68.5514 96.5555 69.427 96.8475 69.427 98.1618C69.427 98.3078 69.573 98.4539 69.7189 98.4539C69.8649 98.4539 70.0108 98.3078 70.0108 98.1618C70.0108 96.9936 70.8865 96.5555 72.3459 96.1174H72.4919C76.4324 96.1174 79.3514 95.0952 81.2487 93.1968C83 91.1524 83 88.6699 83 88.3778ZM64.3189 85.3112C64.7568 85.1652 64.9027 84.289 64.9027 84.289C64.9027 84.289 65.6324 84.7271 66.0703 84.5811C66.0703 84.7271 66.0703 85.1652 66.0703 85.1652C66.0703 85.1652 65.9243 85.4572 66.0703 85.7493C66.2162 85.8953 66.2162 86.1874 66.2162 86.4794C65.9243 86.4794 65.7784 86.4794 65.4865 86.4794C65.0486 86.4794 64.6108 86.4794 64.3189 86.4794C64.3189 85.8953 64.3189 85.7493 64.3189 85.3112ZM72.4919 84.7271H73.3676C73.3676 85.1652 73.3676 85.6033 73.5135 86.3334L72.4919 86.1874C72.4919 85.6033 72.4919 85.1652 72.4919 84.7271ZM79.6432 86.0413C79.0595 86.6255 78.1838 86.9175 77.1622 86.9175C76.8703 86.1874 76.7243 85.4572 76.7243 84.8731L80.6649 82.6827C80.6649 83.1208 80.6649 85.0191 79.6432 86.0413ZM58.0432 82.8287L61.9838 85.0191C61.9838 85.6033 61.8378 86.3334 61.546 87.0635C60.5243 87.0635 59.7946 86.7715 59.2108 86.1874C58.0432 85.0191 58.0432 83.1208 58.0432 82.8287ZM82.2703 78.4478V85.0191L80.5189 86.0413C81.3946 84.5811 81.3946 82.9747 81.3946 82.6827V78.8859L82.2703 78.4478ZM80.6649 78.4478L77.7459 80.2002C77.6 80.0541 77.1622 79.47 76.1405 77.8637L80.6649 74.9431V78.4478ZM72.9297 78.4478C73.6595 78.4478 74.5351 78.3018 75.4108 78.0097C76.4324 79.47 76.8703 80.2002 77.1622 80.4922C76.7243 81.2224 75.4108 83.7049 76.4324 86.7715C75.9946 86.3334 74.973 86.1874 73.9514 86.1874C73.8054 85.4572 73.8054 85.0191 73.8054 84.5811H75.4108C75.5568 84.5811 75.5567 84.289 75.5567 83.9969V82.5366C75.5567 81.3684 74.973 81.3684 74.973 81.3684C74.973 81.3684 74.5351 81.3684 74.3892 80.7843C74.2433 80.2002 73.8054 79.7621 73.3676 79.7621C72.9297 79.7621 72.0541 80.0541 71.4703 80.4922C71.0324 80.6383 71.0324 80.9303 71.0324 81.3684C70.8865 82.3906 70.5946 82.2446 70.5946 82.2446C70.4486 82.2446 70.3027 82.3906 70.3027 82.6827V84.143C70.3027 84.435 70.4486 84.7271 70.5946 84.7271H72.2C72.2 85.1652 72.2 85.6033 72.0541 86.3334C71.0324 86.3334 70.1568 86.6255 69.573 87.0635V77.2796C70.0108 77.7177 71.1784 78.4478 72.9297 78.4478ZM68.8432 77.4256V86.7715C68.4054 86.4794 67.6757 86.3334 66.8 86.3334C66.654 85.8953 66.654 84.7271 66.8 84.435C67.5297 84.289 67.5297 83.5588 67.5297 82.9747C67.5297 82.5366 67.3838 80.9303 67.3838 80.9303L67.8216 80.7843C67.9676 80.7843 67.9676 80.7843 67.9676 80.6383C67.9676 80.4922 67.9676 80.3462 67.9676 80.3462L67.5297 80.2002C67.3838 80.0541 67.2378 79.9081 67.0919 79.9081C66.946 79.9081 66.654 79.9081 66.5081 80.2002C66.3622 80.0541 66.0703 80.2002 65.9243 80.2002C65.9243 80.2002 65.9243 80.9303 66.6541 80.7843L66.8 82.6827C66.8 82.6827 66.8 83.1207 66.3622 82.9747C65.9243 82.8287 65.0487 82.5366 64.4649 82.6827C64.173 82.8287 63.7351 82.9747 63.4433 83.7049C63.1514 84.435 63.5892 84.143 63.5892 84.143L64.027 83.8509C64.027 83.8509 64.3189 84.435 64.027 84.8731C63.7351 85.1652 63.8811 85.4572 63.8811 85.4572C63.8811 85.4572 64.027 86.1874 64.027 86.4794C63.2973 86.4794 62.7135 86.7715 62.2757 86.9175C63.1514 83.8509 61.9838 81.3684 61.546 80.6383C61.8378 80.3462 62.2757 79.616 63.2973 78.1558C64.173 78.4478 65.0486 78.5938 65.7784 78.5938C67.2378 78.4478 68.1135 78.0097 68.8432 77.4256ZM58.0432 74.9431L62.5676 77.8637C61.6919 79.324 61.1081 79.9081 60.9622 80.2002L58.0432 78.5938V74.9431ZM57.3135 78.8859V82.6827C57.3135 82.8287 57.3135 84.5811 58.1892 86.0413L56.4378 85.0191V78.4478L57.3135 78.8859ZM56.5838 89.546L60.9622 92.0286C61.4 93.1968 62.1297 93.9269 63.2973 94.9491C63.5892 95.2412 64.027 95.3872 64.3189 95.5333C61.6919 95.2412 59.6487 94.365 58.3351 92.9047C57.1676 91.7365 56.7297 90.4222 56.5838 89.546ZM69.2811 96.9936C68.6973 96.1174 67.6757 95.8253 66.5081 95.5333C65.4865 95.2412 64.4649 94.9491 63.5892 94.219C61.4 92.6127 60.6703 91.1524 61.8378 87.7937H76.7243C77.8919 91.1524 77.1622 92.4666 74.973 94.219C74.0973 94.8031 73.0757 95.2412 72.0541 95.3872C70.8865 95.8253 69.8649 96.1174 69.2811 96.9936ZM80.373 92.9047C78.9135 94.365 76.8703 95.2412 74.2432 95.5333C74.6811 95.3872 74.973 95.0952 75.2649 94.9491C76.4324 94.073 77.3081 93.1968 77.6 92.1746C77.6 92.1746 77.6 92.1746 77.7459 92.1746L82.1243 89.6921C81.9784 90.4222 81.5405 91.7365 80.373 92.9047Z" fill="#3B5266"/>
<path d="M69.2811 75.673C71.3243 75.673 72.7838 74.6507 72.7838 73.3365C72.7838 72.0222 71.1784 71 69.2811 71C67.2378 71 65.7783 72.0222 65.7783 73.3365C65.7783 74.6507 67.2378 75.673 69.2811 75.673ZM69.2811 72.0222C70.3027 72.0222 71.0324 72.4603 71.0324 72.8984C71.0324 73.3365 70.5946 73.6285 70.0108 73.7746C69.427 73.9206 69.573 74.2127 69.2811 74.3587C68.9892 74.2127 69.1351 73.9206 68.5513 73.7746C67.9675 73.6285 67.5297 73.3365 67.5297 72.8984C67.5297 72.4603 68.2594 72.0222 69.2811 72.0222Z" fill="#3B5266"/>
<path d="M33.4562 128.762C43.5697 128.762 51.7683 120.559 51.7683 110.44C51.7683 100.32 43.5697 92.1172 33.4562 92.1172C23.3426 92.1172 15.144 100.32 15.144 110.44C15.144 120.559 23.3426 128.762 33.4562 128.762Z" fill="#3B5266"/>
<path d="M21.0242 110.44C21.0242 105.565 23.7122 101.531 27.7442 99.3455L27.0722 98.3369C22.7042 100.69 19.6802 105.229 19.6802 110.44C19.6802 115.651 22.7042 120.19 27.0722 122.543L27.7442 121.534C23.8802 119.517 21.0242 115.315 21.0242 110.44Z" fill="#76C1AA"/>
<path d="M39.8402 98.3369L39.3362 99.3455C43.3682 101.363 46.2242 105.565 46.2242 110.44C46.2242 115.315 43.3682 119.517 39.3362 121.534L39.8402 122.543C44.2082 120.19 47.2323 115.651 47.2323 110.44C47.0643 105.229 44.2082 100.69 39.8402 98.3369Z" fill="#76C1AA"/>
<path opacity="0.3" d="M33.4561 113.129C34.9406 113.129 36.1441 111.925 36.1441 110.44C36.1441 108.954 34.9406 107.75 33.4561 107.75C31.9715 107.75 30.7681 108.954 30.7681 110.44C30.7681 111.925 31.9715 113.129 33.4561 113.129Z" fill="white"/>
<path opacity="0.3" d="M35.136 108.423L38.1601 105.397C36.9841 104.22 35.472 103.548 33.624 103.548V107.918C34.128 107.918 34.632 108.086 35.136 108.423Z" fill="white"/>
<path opacity="0.3" d="M36.1441 110.44H40.5122C40.5122 108.759 39.8402 107.078 38.6642 105.901L35.6401 108.927C35.8081 109.263 35.9761 109.768 36.1441 110.44Z" fill="white"/>
<path opacity="0.3" d="M35.3042 112.289L38.3282 115.315C39.5042 114.138 40.1762 112.625 40.1762 110.944H35.8082C35.9762 111.449 35.6402 111.953 35.3042 112.289Z" fill="white"/>
<path opacity="0.3" d="M31.9442 112.625L28.9202 115.651C30.0962 116.659 31.4402 117.332 33.1202 117.332V112.961C32.6162 112.961 32.2802 112.793 31.9442 112.625Z" fill="white"/>
<path opacity="0.3" d="M33.624 113.129V117.5C35.304 117.5 36.8161 116.827 37.8241 115.819L34.8 112.793C34.464 112.961 34.128 113.129 33.624 113.129Z" fill="white"/>
<path opacity="0.3" d="M31.2722 109.095L28.2481 106.069C27.2401 107.246 26.5681 108.759 26.5681 110.44H30.9361C30.7681 109.936 30.9362 109.431 31.2722 109.095Z" fill="white"/>
<path opacity="0.3" d="M30.9362 110.944H26.5681C26.7361 112.625 27.4081 113.97 28.4161 115.147L31.4402 112.121C31.1042 111.785 30.9362 111.449 30.9362 110.944Z" fill="white"/>
<path opacity="0.3" d="M32.952 107.918V103.548C31.272 103.716 29.76 104.388 28.584 105.397L31.608 108.423C31.944 108.255 32.448 107.918 32.952 107.918Z" fill="white"/>
<path d="M33.6241 102.539C33.1201 102.539 32.4481 102.539 31.9441 102.707C28.2481 103.38 25.5601 106.573 25.5601 110.44C25.5601 114.81 29.0881 118.34 33.4561 118.34C35.6401 118.34 37.6561 117.5 39.0001 115.987C40.5122 114.474 41.3522 112.625 41.3522 110.44C41.5202 106.069 37.9921 102.539 33.6241 102.539ZM36.1441 110.44C36.1441 109.935 35.9761 109.431 35.6401 108.927L38.6641 105.901C39.6722 107.078 40.3442 108.591 40.5122 110.44H36.1441ZM28.7521 115.651L31.7761 112.625C32.1121 112.793 32.4481 112.961 32.9521 113.129V117.5C31.4401 117.332 29.9281 116.659 28.7521 115.651ZM35.1361 108.422C34.8001 108.086 34.2961 107.918 33.6241 107.918V103.548C35.3041 103.548 36.9841 104.22 38.1601 105.397L35.1361 108.422ZM30.7681 110.44H26.4001C26.4001 108.759 27.0721 107.246 28.0801 106.069L31.1041 109.095C30.9361 109.431 30.7681 109.935 30.7681 110.44ZM30.9361 110.944C31.1041 111.448 31.2721 111.784 31.4401 112.121L28.4161 115.146C27.4081 113.97 26.7361 112.625 26.5681 110.944H30.9361ZM33.4561 112.625C32.2801 112.625 31.2721 111.616 31.2721 110.44C31.2721 109.263 32.2801 108.254 33.4561 108.254C34.2961 108.254 34.9681 108.759 35.3041 109.431V109.599C35.4721 109.767 35.4721 110.103 35.4721 110.44C35.4721 110.776 35.4721 110.944 35.3041 111.28C35.1361 112.121 34.2961 112.625 33.4561 112.625ZM33.6241 113.129C34.1281 113.129 34.4641 112.961 34.8001 112.793L37.8241 115.819C36.6481 116.827 35.1361 117.5 33.6241 117.5V113.129ZM32.9521 103.548V107.918C32.4481 108.086 31.9441 108.254 31.6081 108.591L28.5841 105.565C29.7601 104.388 31.2721 103.716 32.9521 103.548ZM38.4961 115.314L35.4721 112.289C35.8081 111.952 35.9761 111.448 36.1441 110.944H40.5122C40.1762 112.625 39.5041 114.138 38.4961 115.314Z" fill="white"/>
<path opacity="0.3" d="M135.312 113.012C136.797 113.012 138 111.808 138 110.322C138 108.837 136.797 107.633 135.312 107.633C133.828 107.633 132.624 108.837 132.624 110.322C132.624 111.808 133.828 113.012 135.312 113.012Z" fill="white"/>
<path d="M240 94.5715H247.655V92.2857H293.417L299.074 90H501V106H299.074L293.417 103.714H247.155V101.755H240V94.5715Z" fill="#52A1E4"/>
<path d="M240 62H130V85H240V62Z" fill="#305984"/>
</svg>
