<svg xmlns="http://www.w3.org/2000/svg">

    <!-- Aquí estarán nuestros íconos -->

    <symbol id="nubi" viewBox="0 0 21 20" fill="none">
        <title>Upload</title>
        <path d="M17.079 5.06971C16.8544 3.73535 16.1937 2.51758 15.1832 1.59346C14.0605 0.5657 12.6009 0 11.0808 0C9.90623 0 8.76188 0.336829 7.78162 0.971622C6.96545 1.49846 6.28748 2.21098 5.80814 3.04873C5.60086 3.00987 5.38495 2.98828 5.16903 2.98828C3.33374 2.98828 1.83961 4.48242 1.83961 6.3177C1.83961 6.55521 1.86552 6.78408 1.9087 7.00864C0.72116 7.8723 0 9.2628 0 10.744C0 11.9402 0.444787 13.1018 1.25663 14.0216C2.09007 14.963 3.19124 15.52 4.36582 15.5848C4.37878 15.5848 4.38742 15.5848 4.40037 15.5848H8.11413C8.438 15.5848 8.6971 15.3257 8.6971 15.0018C8.6971 14.678 8.438 14.4189 8.11413 14.4189H4.41764C2.65145 14.3109 1.16595 12.6311 1.16595 10.7397C1.16595 9.51758 1.82233 8.37754 2.88032 7.76002C3.12647 7.61752 3.2301 7.31956 3.1351 7.05182C3.04874 6.81863 3.00555 6.57249 3.00555 6.30907C3.00555 5.11721 3.97717 4.14559 5.16903 4.14559C5.42381 4.14559 5.67428 4.18877 5.90746 4.27514C6.19247 4.37878 6.50771 4.24923 6.63726 3.97717C7.44479 2.2628 9.18939 1.15731 11.0851 1.15731C13.6329 1.15731 15.736 3.06601 15.9778 5.59654C16.0037 5.85996 16.2023 6.07156 16.4614 6.11474C18.3831 6.44294 19.8341 8.21777 19.8341 10.2431C19.8341 12.3893 18.1456 14.2548 16.0642 14.4146H12.8816C12.5577 14.4146 12.2986 14.6737 12.2986 14.9975C12.2986 15.3214 12.5577 15.5805 12.8816 15.5805H16.0858C16.0987 15.5805 16.1117 15.5805 16.1289 15.5805C17.446 15.4855 18.6767 14.8809 19.5922 13.8704C20.5034 12.8686 21 11.5817 21 10.2431C20.9957 7.82048 19.3418 5.66564 17.079 5.06971Z" fill="#5C7F9F"/>
        <path d="M14 11.2967C14.2289 11.0679 14.2289 10.7008 14 10.4719L10.9124 7.38434C10.8044 7.27638 10.6533 7.21161 10.5022 7.21161C10.351 7.21161 10.1999 7.27207 10.0919 7.38434L7.00433 10.4719C6.77545 10.7008 6.77545 11.0679 7.00433 11.2967C7.1166 11.409 7.26774 11.4695 7.41457 11.4695C7.56139 11.4695 7.71253 11.4133 7.82481 11.2967L9.91919 9.20236V18.8279C9.91919 19.1518 10.1783 19.4109 10.5022 19.4109C10.826 19.4109 11.0851 19.1518 11.0851 18.8279V9.20236L13.1795 11.2967C13.4041 11.5256 13.7711 11.5256 14 11.2967Z" fill="#5C7F9F"/>
    </symbol>

    <symbol id="verificacion" viewBox="0 0 26 26" fill="none">
        <title>Verificacion</title>
        <path d="M12.9998 0C5.83252 0 0 5.83138 0 12.9995C0 20.1676 5.83214 26 12.9998 26C20.1686 26 25.9995 20.1681 25.9995 12.9995C25.9995 5.83138 20.169 0 12.9998 0ZM18.626 10.3361L11.8176 17.1445C11.6132 17.3487 11.3438 17.4518 11.0769 17.4518C10.8079 17.4518 10.541 17.3488 10.3359 17.1445L7.37487 14.1834C6.96548 13.7737 6.96548 13.1109 7.37487 12.7016C7.78418 12.2923 8.44696 12.2923 8.85634 12.7016L11.0769 14.9229L17.1455 8.85399C17.554 8.44513 18.2167 8.44513 18.626 8.85399C19.0354 9.26398 19.0354 9.92676 18.626 10.3361Z" fill="white"/>
    </symbol>

    <symbol id="pdf" viewBox="0 0 34 37" fill="none">
        <title>PDF</title>
        <path d="M7.26417 36.6765H30.3001C31.8904 36.6765 33.1796 35.3863 33.1796 33.7948V10.2646C33.1796 9.5709 32.9044 8.90552 32.4145 8.41456L24.7846 0.7686C24.2935 0.27652 23.627 0 22.932 0H7.26417C5.67387 0 4.38467 1.29019 4.38467 2.88172V33.7948C4.38467 35.3863 5.67387 36.6765 7.26417 36.6765Z" fill="white"/>
        </mask>
        <g mask="url(#mask0)">
        <path d="M7.26417 36.6765H30.3001C31.8904 36.6765 33.1796 35.3863 33.1796 33.7948V10.2646C33.1796 9.5709 32.9044 8.90552 32.4145 8.41456L24.7846 0.7686C24.2935 0.27652 23.627 0 22.932 0H7.26417C5.67387 0 4.38467 1.29019 4.38467 2.88172V33.7948C4.38467 35.3863 5.67387 36.6765 7.26417 36.6765Z" fill="#F98786"/>
        <path fill-rule="evenodd" clip-rule="evenodd" d="M4.47671 11.0693H22.1852V28.027L4.42288 30.6502L4.47671 11.0693Z" fill="#FF5D5D"/>
        </g>
        <path fill-rule="evenodd" clip-rule="evenodd" d="M1.47247 9.74658H22.087C22.9003 9.74658 23.5595 10.4308 23.5595 11.2748V26.5566C23.5595 27.4006 22.9003 28.0848 22.087 28.0848H1.47247C0.659247 28.0848 0 27.4006 0 26.5566V11.2748C0 10.4308 0.659247 9.74658 1.47247 9.74658Z" fill="#E33147"/>
        <path d="M12.8149 13.6762C13.283 16.9758 14.0109 18.2669 17.0152 18.9631L16.9545 21.2803C13.5174 21.4761 11.6101 22.0821 7.91728 24.1552L6.54431 22.2625C8.18238 20.9048 9.13399 19.7601 9.66169 18.5988C10.1496 17.525 10.2918 16.5942 10.412 14.2771C10.4176 14.1703 10.4206 14.1104 10.4235 14.0556L10.425 14.0259C10.4281 13.9666 10.4313 13.904 10.4376 13.7838L12.8149 13.6762ZM12.1911 17.8992C12.0433 18.3579 11.9061 18.7134 11.7792 18.9657C11.6524 19.2181 11.4569 19.5331 11.1928 19.9106L13.513 19.3319C13.2059 19.1003 12.9325 18.8547 12.6928 18.5949C12.4531 18.3351 12.2859 18.1033 12.1911 17.8992Z" fill="white"/>
    </symbol>

    <symbol id="delete" viewBox="0 0 18 18" fill="none">
        <title>Delete</title>
        <path d="M12.2058 6.98941C12.0222 6.98941 11.8746 7.13701 11.8746 7.32061V13.1094C11.8746 13.6566 11.43 14.1012 10.8828 14.1012H6.91381C6.36661 14.1012 5.92201 13.6566 5.92201 13.1094V7.31881C5.92201 7.13521 5.77441 6.98761 5.59081 6.98761C5.40901 6.98761 5.25961 7.13521 5.25961 7.31881V13.1076C5.25961 14.0202 6.00121 14.7618 6.91381 14.7618H10.8828C11.7954 14.7618 12.537 14.0202 12.537 13.1076V7.31881C12.537 7.13701 12.3876 6.98941 12.2058 6.98941Z" fill="#FFA2A2"/>
        <path d="M7.57439 13.1058V8.47982C7.57439 8.29622 7.42679 8.14862 7.24319 8.14862C7.06139 8.14862 6.91199 8.29622 6.91199 8.47982V13.1058C6.91199 13.2876 7.05959 13.437 7.24319 13.437C7.42679 13.437 7.57439 13.2876 7.57439 13.1058Z" fill="#FFA2A2"/>
        <path d="M9.22859 13.1058V8.47982C9.22859 8.29622 9.08099 8.14862 8.89739 8.14862C8.71379 8.14862 8.56619 8.29622 8.56619 8.47982V13.1058C8.56619 13.2876 8.71379 13.437 8.89739 13.437C9.08099 13.437 9.22859 13.2876 9.22859 13.1058Z" fill="#FFA2A2"/>
        <path d="M10.8828 13.1058V8.47982C10.8828 8.29622 10.7352 8.14862 10.5516 8.14862C10.368 8.14862 10.2204 8.29622 10.2204 8.47982V13.1058C10.2204 13.2876 10.368 13.437 10.5516 13.437C10.7352 13.437 10.8828 13.2876 10.8828 13.1058Z" fill="#FFA2A2"/>
        <path d="M12.4578 4.21383H9.81179V3.87003C9.81179 3.32283 9.36719 2.87823 8.81999 2.87823C8.2728 2.87823 7.8282 3.32283 7.8282 3.87003V4.21383H5.1822C4.635 4.21383 4.1904 4.65843 4.1904 5.20563V5.86803C4.1904 6.04983 4.338 6.19923 4.5216 6.19923H13.1202C13.3038 6.19923 13.4514 6.05163 13.4514 5.86803V5.20563C13.4496 4.66023 13.005 4.21383 12.4578 4.21383ZM8.48879 3.87183C8.48879 3.69003 8.63639 3.54063 8.81999 3.54063C9.00179 3.54063 9.1512 3.69003 9.1512 3.87183V4.21563H8.4906L8.48879 3.87183ZM12.789 5.53683H4.851V5.20563C4.851 5.02383 4.9986 4.87443 5.1822 4.87443H12.4578C12.6396 4.87443 12.789 5.02203 12.789 5.20563V5.53683Z" fill="#FFA2A2"/>
        <path d="M8.82 0C3.9492 0 0 3.9492 0 8.82C0 13.6908 3.9492 17.64 8.82 17.64C13.6908 17.64 17.64 13.6908 17.64 8.82C17.64 3.9492 13.6908 0 8.82 0ZM8.82 16.8714C4.374 16.8714 0.7686 13.266 0.7686 8.82C0.7686 4.374 4.374 0.7686 8.82 0.7686C13.266 0.7686 16.8714 4.374 16.8714 8.82C16.8714 13.266 13.266 16.8714 8.82 16.8714Z" fill="#FFA2A2"/>
    </symbol>
</svg>