<svg width="21" height="20" viewBox="0 0 21 20" fill="none" xmlns="http://www.w3.org/2000/svg">
<path d="M17.079 5.06971C16.8544 3.73535 16.1937 2.51758 15.1832 1.59346C14.0605 0.5657 12.6009 0 11.0808 0C9.90623 0 8.76188 0.336829 7.78162 0.971622C6.96545 1.49846 6.28748 2.21098 5.80814 3.04873C5.60086 3.00987 5.38495 2.98828 5.16903 2.98828C3.33374 2.98828 1.83961 4.48242 1.83961 6.3177C1.83961 6.55521 1.86552 6.78408 1.9087 7.00864C0.72116 7.8723 0 9.2628 0 10.744C0 11.9402 0.444787 13.1018 1.25663 14.0216C2.09007 14.963 3.19124 15.52 4.36582 15.5848C4.37878 15.5848 4.38742 15.5848 4.40037 15.5848H8.11413C8.438 15.5848 8.6971 15.3257 8.6971 15.0018C8.6971 14.678 8.438 14.4189 8.11413 14.4189H4.41764C2.65145 14.3109 1.16595 12.6311 1.16595 10.7397C1.16595 9.51758 1.82233 8.37754 2.88032 7.76002C3.12647 7.61752 3.2301 7.31956 3.1351 7.05182C3.04874 6.81863 3.00555 6.57249 3.00555 6.30907C3.00555 5.11721 3.97717 4.14559 5.16903 4.14559C5.42381 4.14559 5.67428 4.18877 5.90746 4.27514C6.19247 4.37878 6.50771 4.24923 6.63726 3.97717C7.44479 2.2628 9.18939 1.15731 11.0851 1.15731C13.6329 1.15731 15.736 3.06601 15.9778 5.59654C16.0037 5.85996 16.2023 6.07156 16.4614 6.11474C18.3831 6.44294 19.8341 8.21777 19.8341 10.2431C19.8341 12.3893 18.1456 14.2548 16.0642 14.4146H12.8816C12.5577 14.4146 12.2986 14.6737 12.2986 14.9975C12.2986 15.3214 12.5577 15.5805 12.8816 15.5805H16.0858C16.0987 15.5805 16.1117 15.5805 16.1289 15.5805C17.446 15.4855 18.6767 14.8809 19.5922 13.8704C20.5034 12.8686 21 11.5817 21 10.2431C20.9957 7.82048 19.3418 5.66564 17.079 5.06971Z" fill="#5C7F9F"/>
<path d="M14 11.2967C14.2289 11.0679 14.2289 10.7008 14 10.4719L10.9124 7.38434C10.8044 7.27638 10.6533 7.21161 10.5022 7.21161C10.351 7.21161 10.1999 7.27207 10.0919 7.38434L7.00433 10.4719C6.77545 10.7008 6.77545 11.0679 7.00433 11.2967C7.1166 11.409 7.26774 11.4695 7.41457 11.4695C7.56139 11.4695 7.71253 11.4133 7.82481 11.2967L9.91919 9.20236V18.8279C9.91919 19.1518 10.1783 19.4109 10.5022 19.4109C10.826 19.4109 11.0851 19.1518 11.0851 18.8279V9.20236L13.1795 11.2967C13.4041 11.5256 13.7711 11.5256 14 11.2967Z" fill="#5C7F9F"/>
</svg>
