<svg width="40" height="40" viewBox="0 0 40 40" fill="none" xmlns="http://www.w3.org/2000/svg">
<circle cx="20" cy="20" r="20" fill="#73AC84"/>
<path d="M12.9915 21.0002H23.6961L19.0195 25.8802C18.6457 26.2702 18.6457 26.9102 19.0195 27.3002C19.3932 27.6902 19.997 27.6902 20.3707 27.3002L26.6861 20.7102C27.0599 20.3202 27.0599 19.6902 26.6861 19.3002L20.3803 12.7002C20.2012 12.5129 19.9582 12.4077 19.7047 12.4077C19.4512 12.4077 19.2081 12.5129 19.029 12.7002C18.6553 13.0902 18.6553 13.7202 19.029 14.1102L23.6961 19.0002H12.9915C12.4645 19.0002 12.0332 19.4502 12.0332 20.0002C12.0332 20.5502 12.4645 21.0002 12.9915 21.0002Z" fill="white"/>
</svg>
