<svg width="71" height="70" viewBox="0 0 71 70" fill="none" xmlns="http://www.w3.org/2000/svg">
<path d="M35.0841 44.9879C39.0946 44.9879 42.3457 41.6434 42.3457 37.5178C42.3457 33.3922 39.0946 30.0478 35.0841 30.0478C31.0737 30.0478 27.8226 33.3922 27.8226 37.5178C27.8226 41.6434 31.0737 44.9879 35.0841 44.9879Z" fill="white"/>
<path d="M35.0021 47.506H34.8389L33.9414 58.3333L35.0837 59.5084L36.2259 58.3333L35.3284 47.506H35.0021C35.0837 47.506 35.0837 47.506 35.0021 47.506Z" fill="white"/>
<path d="M63.0693 21.235C59.0714 21.235 55.8077 24.5923 55.8077 28.705H53.36C53.36 23.2494 57.6027 18.801 62.9061 18.717C61.7638 12.2542 56.2157 7.47 49.7701 7.47C47.5671 7.47 45.5274 7.97362 43.5692 9.06475L42.5901 9.56833L42.019 8.64508C38.6738 3.27337 32.8809 0 26.68 0C16.6444 0 8.40379 8.39326 8.40379 18.8009V18.8849C11.0963 19.2206 13.544 20.7314 15.1758 23.0816L13.2176 24.5084C11.8306 22.494 9.62765 21.3189 7.26153 21.3189C3.26361 21.3189 0 24.6763 0 28.789C0 32.566 2.77405 35.7554 6.28244 36.259C6.11926 35.8393 6.03768 35.3358 6.03768 34.8322C6.03768 32.2303 8.15901 30.048 10.6883 30.048C11.9122 30.048 13.136 30.5516 13.9519 31.4749L18.6842 36.343H25.5377C26.1089 31.3909 30.27 27.6139 35.1654 27.6139C40.0608 27.6139 44.2219 31.4748 44.7931 36.343H51.6466L56.3789 31.4749C57.2764 30.5516 58.4186 30.048 59.6425 30.048C62.1718 30.048 64.2931 32.2303 64.2931 34.8322C64.2931 35.3358 64.2115 35.7554 64.0484 36.259C67.6383 35.7554 70.3308 32.6499 70.3308 28.789C70.4124 24.5923 67.1488 21.235 63.0693 21.235ZM48.1383 28.3693L46.4249 26.6067L47.9751 25.012H22.1925L23.7428 26.6067L22.0294 28.3693L17.5419 23.753L22.0294 19.1367L23.7428 20.8993L22.1925 22.494H47.9751L46.4249 20.8993L48.1383 19.1367L52.6257 23.753L48.1383 28.3693Z" fill="white"/>
<path d="M59.6424 32.4821C59.0713 32.4821 58.5002 32.7339 58.0922 33.1536L48.6277 42.8898C46.5879 44.9881 43.8955 46.331 41.0398 46.7506L38.1025 47.1703C35.4101 47.506 32.8808 47.2542 31.9833 47.1703L31.6569 47.0864L29.2908 46.7506C26.4351 46.331 23.7426 44.9881 21.7029 42.8898L12.2384 33.1536C11.8305 32.7339 11.2593 32.4821 10.6882 32.4821C9.46434 32.4821 8.48527 33.4893 8.48527 34.7483C8.48527 35.3358 8.73003 35.9233 9.13798 36.343L26.7615 54.4725V70.0001H43.8139V54.4725L61.4374 36.343C61.8453 35.9233 62.0901 35.3358 62.0901 34.7483C61.8453 33.5732 60.8662 32.4821 59.6424 32.4821Z" fill="white"/>
</svg>
