<svg width="97" height="70" viewBox="0 0 97 70" fill="none" xmlns="http://www.w3.org/2000/svg">
<path d="M62.375 36.9793C63.4375 36.9793 64.2989 36.0931 64.2989 35.0001C64.2989 33.907 63.4375 33.0209 62.375 33.0209C61.3124 33.0209 60.451 33.907 60.451 35.0001C60.451 36.0931 61.3124 36.9793 62.375 36.9793Z" fill="white"/>
<path d="M43.6444 48.333L40.4041 50.2081C42.328 53.0206 44.657 55.5206 47.4922 57.4997L49.3149 54.1664C49.8212 53.2289 51.0363 52.9164 51.9477 53.4372C52.859 53.958 53.1628 55.1039 52.6565 56.0414L50.8338 59.3747C53.8716 60.9372 57.1119 61.7705 60.4534 62.083V58.2288C60.4534 57.1872 61.2635 56.2497 62.3774 56.2497C63.4912 56.2497 64.3013 57.083 64.3013 58.2288V62.083C67.6429 61.8747 70.9844 60.9372 73.9209 59.3747L72.0983 56.0414C71.592 55.1039 71.8957 53.9581 72.8071 53.3331C73.7184 52.8122 74.8323 53.1247 75.4398 54.0622L77.2625 57.3955C79.9965 55.4163 82.4267 53.0205 84.3506 50.1038L81.1103 48.2289C80.199 47.708 79.8952 46.5622 80.4015 45.6247C80.9078 44.6872 82.0217 44.3747 82.933 44.8955L86.1733 46.7705C87.6922 43.6455 88.5023 40.3122 88.806 36.8747H85.0594C84.0468 36.8747 83.1355 36.0414 83.1355 34.8955C83.1355 33.8539 83.9456 32.9163 85.0594 32.9163H88.806C88.6035 29.4788 87.6922 26.0413 86.1733 23.0205L82.933 24.8955C82.0217 25.4163 80.9078 25.1039 80.3003 24.1664C79.794 23.2289 80.0977 22.083 81.0091 21.458L84.2494 19.583C82.3255 16.7705 79.9965 14.2705 77.1612 12.2914L75.3386 15.6247C74.8323 16.5622 73.6172 16.8747 72.7058 16.3539C71.7945 15.833 71.4907 14.6872 71.997 13.7497L73.8197 10.4164C70.7819 8.85386 67.5416 8.02049 64.2 7.70799V11.5622C64.2 12.6038 63.39 13.5414 62.2761 13.5414C61.1623 13.5414 60.3522 12.708 60.3522 11.5622V7.70799C57.0106 7.91633 53.6691 8.85386 50.7325 10.4164L52.5552 13.7497C53.0615 14.6872 52.7577 15.833 51.8464 16.458C50.9351 17.083 49.8212 16.6663 49.2136 15.7288L47.391 12.3955C44.657 14.3747 42.2268 16.7705 40.3028 19.6872L43.5431 21.5622C44.4545 22.083 44.7582 23.2289 44.2519 24.1664C43.7456 25.1039 42.6318 25.4163 41.7205 24.8955L38.4802 23.0205C36.9613 26.1455 36.1512 29.4788 35.8474 32.9163H39.594C40.6066 32.9163 41.5179 33.7497 41.5179 34.8955C41.5179 35.9372 40.7079 36.8747 39.594 36.8747H35.8474C36.0499 40.3122 36.9613 43.7497 38.4802 46.7705L41.7205 44.8955C42.6318 44.3747 43.7456 44.6872 44.3532 45.6247C44.9608 46.5622 44.5557 47.8122 43.6444 48.333ZM62.3774 29.1664C63.1874 29.1664 64.0988 29.3747 64.8076 29.6872L70.4781 23.8538C71.1869 23.1247 72.402 23.1247 73.1109 23.8538C73.8197 24.583 73.8197 25.833 73.1109 26.5622L67.4403 32.3955C68.7567 35.3122 67.6429 38.7497 64.8076 40.208C64.6051 40.3122 64.4026 40.4164 64.3013 40.4164V50.4163C64.3013 51.458 63.4912 52.3955 62.3774 52.3955C61.2635 52.3955 60.4534 51.5622 60.4534 50.4163V40.4164C57.5169 39.3747 55.998 36.0414 57.0106 33.0205C57.8207 30.7289 59.9471 29.1664 62.3774 29.1664Z" fill="white"/>
<path d="M62.3762 70C81.1092 70 96.3993 54.2708 96.3993 35C96.3993 15.7291 81.1092 0 62.3762 0C43.6432 0 28.353 15.7291 28.353 35C28.353 54.2708 43.6432 70 62.3762 70ZM36.15 50.5208C36.15 50.5208 36.15 50.4166 36.0487 50.4166C30.682 40.8333 30.682 29.1666 36.0487 19.5833C36.0487 19.5833 36.0487 19.4792 36.15 19.4792C36.15 19.375 36.2513 19.375 36.2513 19.375C38.884 14.7916 42.6306 10.9375 47.086 8.22913L47.1873 8.12499C47.1873 8.12499 47.2885 8.12501 47.2885 8.02084C56.6044 2.50001 67.9455 2.50001 77.2613 8.02084C77.2613 8.02084 77.3626 8.02082 77.3626 8.12499L77.4638 8.22913C81.9192 10.9375 85.6658 14.7916 88.2986 19.375L88.3998 19.4792C88.3998 19.4792 88.3999 19.5833 88.5011 19.5833C93.8679 29.1666 93.8679 40.8333 88.5011 50.4166C88.5011 50.4166 88.5011 50.5208 88.3998 50.5208C88.3998 50.5208 88.3998 50.625 88.2986 50.625C85.6658 55.2083 81.9192 59.0625 77.4638 61.7708L77.3626 61.875H77.2613C67.9455 67.3958 56.5031 67.3958 47.1873 61.875H47.086L46.9847 61.7708C42.6306 59.0625 38.884 55.3125 36.15 50.5208C36.2513 50.625 36.2513 50.625 36.15 50.5208Z" fill="white"/>
<path d="M41.6174 11.5623H19.3403C18.1252 11.5623 17.1126 10.5207 17.1126 9.27067C17.1126 8.02067 18.1252 6.97906 19.3403 6.97906H41.6174C42.8325 6.97906 43.8451 8.02067 43.8451 9.27067C43.8451 10.5207 42.8325 11.5623 41.6174 11.5623Z" fill="white"/>
<path d="M30.5803 28.8543H2.2277C1.01259 28.8543 0 27.8126 0 26.5626C0 25.3126 1.01259 24.2709 2.2277 24.2709H30.5803C31.7954 24.2709 32.808 25.3126 32.808 26.5626C32.808 27.8126 31.6942 28.8543 30.5803 28.8543Z" fill="white"/>
<path d="M30.5808 45.4169H14.8856C13.6705 45.4169 12.6579 44.3752 12.6579 43.1252C12.6579 41.8752 13.6705 40.8336 14.8856 40.8336H30.5808C31.7959 40.8336 32.8085 41.8752 32.8085 43.1252C32.8085 44.3752 31.6947 45.4169 30.5808 45.4169Z" fill="white"/>
<path d="M41.4149 62.8125H12.3534C11.1383 62.8125 10.1257 61.7708 10.1257 60.5208C10.1257 59.2708 11.1383 58.2291 12.3534 58.2291H41.4149C42.63 58.2291 43.6426 59.2708 43.6426 60.5208C43.6426 61.7708 42.63 62.8125 41.4149 62.8125Z" fill="white"/>
</svg>
