<svg width="1087" height="1235" viewBox="0 0 1087 1235" fill="none" xmlns="http://www.w3.org/2000/svg">
<path d="M456 220H804.5V1234.5H0L456 220Z" fill="#E61E44" fill-opacity="0.4"/>
<path d="M578 131H926.5V1145.5H122L578 131Z" fill="#E61E44"/>
<path d="M738.717 0H1087V1037H283L738.717 0Z" fill="white" fill-opacity="0.28"/>
</svg>
