<svg width="26" height="26" viewBox="0 0 26 26" fill="none" xmlns="http://www.w3.org/2000/svg">
<path d="M12.9998 0C5.83252 0 0 5.83138 0 12.9995C0 20.1676 5.83214 26 12.9998 26C20.1686 26 25.9995 20.1681 25.9995 12.9995C25.9995 5.83138 20.169 0 12.9998 0ZM18.626 10.3361L11.8176 17.1445C11.6132 17.3487 11.3438 17.4518 11.0769 17.4518C10.8079 17.4518 10.541 17.3488 10.3359 17.1445L7.37487 14.1834C6.96548 13.7737 6.96548 13.1109 7.37487 12.7016C7.78418 12.2923 8.44696 12.2923 8.85634 12.7016L11.0769 14.9229L17.1455 8.85399C17.554 8.44513 18.2167 8.44513 18.626 8.85399C19.0354 9.26398 19.0354 9.92676 18.626 10.3361Z" fill="white"/>
</svg>
