<svg width="8" height="8" viewBox="0 0 8 8" fill="none" xmlns="http://www.w3.org/2000/svg">
<g clip-path="url(#clip0)">
<path d="M2.18976 3.46566C2.44939 4.31698 3.11656 5.20151 4.01618 5.20151C4.9158 5.20151 5.58448 4.31698 5.8426 3.46566C6.06448 3.38868 6.25014 3.16679 6.32261 2.88C6.42223 2.48604 6.2758 2.12075 5.99204 2.01057C6.0177 1.90642 6.03129 1.79925 6.03129 1.68906C6.03126 0.754717 5.09995 0 3.95126 0C2.80258 0 1.86824 0.756226 1.86824 1.68906C1.86824 1.82189 1.88937 1.9517 1.92409 2.07547C1.71881 2.23094 1.62522 2.54491 1.70975 2.88151C1.78222 3.16679 1.96786 3.38868 2.18976 3.46566ZM2.05088 2.38038C2.08107 2.33057 2.12032 2.29736 2.17013 2.28377C2.17918 2.28226 2.19126 2.28075 2.20182 2.28075C2.21088 2.28075 2.21843 2.28075 2.22749 2.28226L2.37088 2.29585L2.39201 2.15396C2.43579 1.85811 2.52786 1.59245 2.65767 1.36604C2.90069 1.63925 3.38371 1.82491 3.94069 1.82491C4.57013 1.82491 5.10598 1.58792 5.30371 1.25585C5.46975 1.50491 5.58749 1.8083 5.63879 2.15396L5.65992 2.29585L5.80332 2.28226C5.82445 2.28075 5.84407 2.28075 5.86068 2.28377C5.87124 2.28528 5.8773 2.29283 5.88785 2.29585C6.01767 2.35321 6.08407 2.58113 6.02824 2.80755C5.97087 3.03849 5.81992 3.17434 5.70069 3.18943L5.60106 3.20302L5.57389 3.29962C5.35654 4.09359 4.75277 4.89962 4.01313 4.89962C3.27351 4.89962 2.66973 4.09509 2.45539 3.29962L2.42822 3.20302L2.3286 3.18943C2.20936 3.17434 2.05841 3.03547 2.00106 2.80755C1.96335 2.64453 1.98599 2.48 2.05088 2.38038Z" fill="#AEAEAE"/>
<path d="M5.78974 4.51953C5.59654 4.84859 5.37314 5.12783 5.07578 5.27725C4.46446 5.58971 4.01012 5.84329 4.01012 5.84329L4.00861 5.84178V5.83423L4.00106 5.83725L3.99352 5.83423V5.84178L3.99201 5.84329C3.99201 5.84329 3.53767 5.59123 2.92635 5.27725C2.6305 5.1248 2.4071 4.84706 2.21238 4.51953C1.30825 4.88632 0.675781 5.73312 0.675781 6.46972C0.675781 7.24708 0.675781 8.00029 0.675781 8.00029H3.99201H4.00408H7.32333C7.32333 8.00029 7.32333 7.24708 7.32333 6.46972C7.32636 5.73312 6.69391 4.88783 5.78974 4.51953Z" fill="#AEAEAE"/>
</g>
<defs>
<clipPath id="clip0">
<rect width="8" height="8" fill="white"/>
</clipPath>
</defs>
</svg>
